Period comparison scatter plot for any two metrics — create_period_scatter • wpa
…
# Return a summary table
create_period_scatter(sq_data, before_end = "2019-12-31", return = "table")

#> # A tibble: 30 x 5
#>    group              Multitasking_meeting_hours Meeting_hours Period       n
#>    <chr>                                   <dbl>         <dbl> <chr>    <int>
#>  1 Biz Dev                                 0.257          6.82 Period 1    75
#>  2 Customer Service                        0.436          8.60 Period 1    61
#>  3 Facilities                              0.484          9.08 Period 1    72
#>  4 Finance-Corporate                       0.310          8.19 Period 1    68
#>  5 Finance-East                            0.789         11.4  Period 1    70
#>  6 Finance-South                           0.617          8.91 Period 1    81
#>  7 Finance-West                            0.765         10.5  Period 1    73
#>  8 Financial Planning                      0.372          8.24 Period 1    75
#>  9 G&A Central                             0.572          9.03 Period 1    57
#> 10 G&A East                                0.329          7.70 Period 1    65
#> # … with 20 more rows
…
