Extract HR attribute variables — extract_hr • wpa
…
    Examples

sq_data %>% extract_hr(return = "names")
#> [1] "FunctionType"     "LevelDesignation" "Organization"     "IsActive"        

sq_data %>% extract_hr(return = "vars")
#> # A tibble: 13,442 × 4
#>    FunctionType LevelDesignation Organization     IsActive
#>    <chr>        <chr>            <chr>            <lgl>   
#>  1 G_and_A      Junior IC        Customer Service TRUE    
#>  2 G_and_A      Junior IC        Customer Service TRUE    
#>  3 G_and_A      Junior IC        Customer Service TRUE    
#>  4 G_and_A      Junior IC        Customer Service TRUE    
#>  5 G_and_A      Junior IC        Customer Service TRUE    
#>  6 G_and_A      Junior IC        Customer Service TRUE    
#>  7 G_and_A      Junior IC        Customer Service TRUE    
#>  8 G_and_A      Junior IC        Customer Service TRUE    
#>  9 G_and_A      Junior IC        Customer Service TRUE    
#> 10 G_and_A      Junior IC        Customer Service TRUE    
#> # … with 13,432 more rows
…
