Flag unusual outlook time settings for work day start and end time — flag_outlooktime • wpa
…
spq_df$WorkingStartTimeSetInOutlook <- "6:30"

spq_df$WorkingEndTimeSetInOutlook <- "23:30"

# Return a message
flag_outlooktime(spq_df, threshold = c(5, 13))

#> [Warning]  100% (13442) of the person-date rows in the data have extreme Outlook settings.
#> 0% (0)  have an Outlook workday shorter than 5 hours, while 100% (13442) have a workday longer than 13 hours.

# Return data
flag_outlooktime(spq_df, threshold = c(5, 13), return = "data")

#> # A tibble: 13,442 x 5
#>    PersonId                   WorkdayRange WorkdayFlag WorkdayFlag1 WorkdayFlag2
#>    <chr>                             <dbl> <lgl>       <lgl>        <lgl>       
#>  1 93F763956FFC939A5DDE7D599…           17 TRUE        FALSE        TRUE        
#>  2 93F763956FFC939A5DDE7D599…           17 TRUE        FALSE        TRUE        
#>  3 93F763956FFC939A5DDE7D599…           17 TRUE        FALSE        TRUE        
#>  4 93F763956FFC939A5DDE7D599…           17 TRUE        FALSE        TRUE        
#>  5 93F763956FFC939A5DDE7D599…           17 TRUE        FALSE        TRUE        
#>  6 93F763956FFC939A5DDE7D599…           17 TRUE        FALSE        TRUE        
#>  7 93F763956FFC939A5DDE7D599…           17 TRUE        FALSE        TRUE        
#>  8 93F763956FFC939A5DDE7D599…           17 TRUE        FALSE        TRUE        
#>  9 93F763956FFC939A5DDE7D599…           17 TRUE        FALSE        TRUE        
#> 10 93F763956FFC939A5DDE7D599…           17 TRUE        FALSE        TRUE        
#> # … with 13,432 more rows
…
