Identify shifts based on binary activity — identify_shifts_wp • wpa
…
# Return table
em_data %>% identify_shifts_wp(return = "table")
#> # A tibble: 26 × 6
#>    Shifts      DaySpan WeekCount PersonCount `Week%` `Person%`
#>    <chr>         <dbl>     <int>       <int>   <dbl>     <dbl>
#>  1 7:00-17:00       10       786         340  0.393     0.309 
#>  2 8:00-17:00        9       733         380  0.366     0.345 
#>  3 0:00-23:00       23       116          91  0.058     0.0827
#>  4 11:00-17:00       6       105          67  0.0525    0.0609
#>  5 9:00-17:00        8        73          52  0.0365    0.0473
#>  6 0:00-17:00       17        60          54  0.03      0.0491
#>  7 6:00-17:00       11        39          28  0.0195    0.0255
#>  8 8:00-16:00        8        14          14  0.007     0.0127
#>  9 10:00-17:00       7        11          11  0.0055    0.01  
#> 10 7:00-16:00        9        11          11  0.0055    0.01  
#> # … with 16 more rows
…
