Identify groups under privacy threshold — identify_privacythreshold • wpa
…
    Examples

# Return a summary table
dv_data %>% identify_privacythreshold(return = "table")

#> # A tibble: 29 x 3
#>    hrvar            group                    n
#>    <chr>            <chr>                <int>
#>  1 Organization     IT-East                  1
#>  2 Organization     Financial Planning       2
#>  3 FunctionType     IT                       3
#>  4 Organization     Human Resources          3
#>  5 Organization     G&A Central              3
#>  6 Organization     Inventory Management     4
#>  7 Organization     Finance-South            4
#>  8 Organization     Finance-Corporate        4
#>  9 FunctionType     Sales                    5
#> 10 LevelDesignation Director                 5
#> # … with 19 more rows
…
