Create a network plot with the person-to-person query — network_p2p • wpa
…
# Return a data frame matching HR variable and communities to nodes
# Using Louvain communities
p2p_data %>%
  network_p2p(display = "louvain",
              return = "data",
              algorithm = "fr")
#> # A tibble: 50 × 3
#>    name      Organization cluster
#>    <chr>     <chr>        <chr>  
#>  1 SIM_ID_1  Org F        1      
#>  2 SIM_ID_2  Org F        1      
#>  3 SIM_ID_3  Org E        1      
#>  4 SIM_ID_4  Org D        1      
#>  5 SIM_ID_5  Org C        1      
#>  6 SIM_ID_6  Org B        1      
#>  7 SIM_ID_7  Org A        1      
#>  8 SIM_ID_8  Org D        1      
#>  9 SIM_ID_9  Org E        1      
#> 10 SIM_ID_10 Org C        1      
#> # … with 40 more rows
…
