Summarise node centrality statistics with an igraph object — network_summary • wpa
…
    Examples

# Simulate a p2p network
p2p_data <- p2p_data_sim()
g <- network_p2p(data = p2p_data, return = "network")

# Return summary table
network_summary(graph = g, return = "table")
#> # A tibble: 300 × 5
#>    node_id   betweenness closeness degree eigenvector
#>    <chr>           <dbl>     <dbl>  <dbl>       <dbl>
#>  1 SIM_ID_1          0       0.225     10       0.588
#>  2 SIM_ID_2         58.0     0.233     12       0.685
#>  3 SIM_ID_4        140.      0.239      9       0.587
#>  4 SIM_ID_5        262.      0.238     11       0.681
#>  5 SIM_ID_6        290.      0.222     11       0.687
#>  6 SIM_ID_7        115.      0.201     10       0.639
#>  7 SIM_ID_8        201.      0.219     10       0.643
#>  8 SIM_ID_9        283.      0.228     11       0.700
#>  9 SIM_ID_10       110.      0.217     10       0.646
#> 10 SIM_ID_12       444.      0.232     11       0.650
#> # … with 290 more rows
…
