Clean subject line text prior to analysis — tm_clean • wpa
…
    Examples

# words
tm_clean(mt_data)

#> Joining, by = "word"
#> Joining, by = "word"
#> # A tibble: 6,520 × 2
#>     line word       
#>    <int> <chr>      
#>  1     1 planning   
#>  2     1 core       
#>  3     2 agile      
#>  4     2 officer    
#>  5     3 setup      
#>  6     3 performance
#>  7     3 ryan       
#>  8     3 friday     
#>  9     3 consumer   
#> 10     4 volometrix 
#> # … with 6,510 more rows

# ngrams
tm_clean(mt_data, token = "ngrams")

#> Joining, by = "word"
#> Joining, by = "word"
#> # A tibble: 7,688 × 2
#>     line word                 
#>    <int> <chr>                
#>  1     1 planning will and    
#>  2     1 will and core        
#>  3     1 and core r           
#>  4     1 core r d             
#>  5     1 r d from             
#>  6     2 the agile officer    
#>  7     3 setup performance and
#>  8     3 performance and the  
#>  9     3 and the ryan         
#> 10     3 the ryan for         
#> # … with 7,678 more rows
…
