Identifying noteworthy groups with rank functions • wpa
…
Rank Functions

Baseline analysis

To get started, let’s open a new session in R and load the wpa R package. We will also use dplyr to facilitate data manipulation:

library(wpa)
library(dplyr)

We will use the sq_data demo dataset, which contains a weekly person query output, and apply the collaboration_rank() function:

sq_data %>% 
    collaboration_rank(return = "table")
#> # A tibble: 30 × 4
#>    hrvar            group                Collaboration_hours     n
#>    <chr>            <chr>                              <dbl> <int>
#>  1 FunctionType     Sales                               31.0    82
#>  2 Organization     Inventory Management                26.2    60
#>  3 FunctionType     Marketing                           25.8   207
#>  4 Organization     Human Resources                     24.4    71
#>  5 Organization     IT-Corporate                        23.7    68
#>  6 Organization     G&A South                           23.1    76
#>  7 Organization     Finance-East                        22.2    70
#>  8 LevelDesignation Manager                             21.5   333
#>  9 Organization     Finance-West                        20.6    73
#> 10 Organization     IT-East                             20.6    62
#> # … with 20 more rows
…
This plot contains the same information as the table above. Each row corresponds to a different organisational attribute and the bubbles show how the population is split across different subgroups, where bubble size is proportional to the number of individuals. The five groups in orange are clearly the ones spending most time in collaboration, with Sales being far ahead of the other groups. Keep in mind that each row of bubbles represents a different way to slice the same population, so groups across rows are not mutually exclusive.

Combining two HR variables

In our baseline analysis, we uncovered that the 82 employees labelled as FunctionType = "Sales" have the highest average collaboration hours. However, it is likely that some employees in this group are more affected than others. Furthermore, there may be pockets in other parts of this company that may be experiencing similar levels of collaboration overload, but that are hidden given the structure of the organisational data (for example, the managers within a particular business unit).

The rank function includes an additional mode called “combine” that allows us to take our analysis one step further by performing on two HR variables the same analysis in a combinatorial manner:

sq_data %>% 
    collaboration_rank(return = "table", mode = "combine")
#> # A tibble: 382 × 4
#>    hrvar    group                                       Collaboration_hou…     n
#>    <chr>    <chr>                                                    <dbl> <int>
#>  1 Combined [FunctionType] Sales [LevelDesignation] Ma…               33.7    28
#>  2 Combined [FunctionType] Sales [LevelDesignation] Ju…               31.0    13
#>  3 Combined [FunctionType] Sales [LevelDesignation] Su…               29.5    24
#>  4 Combined [FunctionType] Sales [LevelDesignation] Di…               29.2     6
#>  5 Combined [FunctionType] Sales [LevelDesignation] Se…               28.2    11
#>  6 Combined [FunctionType] Marketing [LevelDesignation…               27.4    72
#>  7 Combined [FunctionType] Marketing [LevelDesignation…               25.9    17
#>  8 Combined [FunctionType] Marketing [LevelDesignation…               25.1    14
#>  9 Combined [FunctionType] Marketing [LevelDesignation…               25.1    81
#> 10 Combined [FunctionType] Marketing [LevelDesignation…               24.3    22
#> # … with 372 more rows
…
create_rank()

Using rank functions for profiling

In the previous section, we explored how rank functions can help analysts uncover interesting insights, without the need of manually slicing the data across multiple attributes.

Rank functions have an additional use: they can help us identify what combination of attributes best describe a group that shows a given behaviour. For example, we may be concerned about individuals that are experiencing both a heavy collaboration load (more than 20 hours a week on average) and long workweeks (workweek span of over 60 hours), and would like to know where in the organisations these individuals sit.

To answer that question, let’s create a new numeric custom metric (i.e. a binary flag that is only either 1 or 0) and then apply the create_rank() function:

sq_data %>%
    mutate(At_risk = ifelse(Collaboration_hours > 20 &  Workweek_span > 60 , 1, 0)) %>%
    create_rank(metric = "At_risk", mode = "combine")
#> # A tibble: 382 × 4
#>    hrvar    group                                                 At_risk     n
#>    <chr>    <chr>                                                   <dbl> <int>
#>  1 Combined [FunctionType] Sales [LevelDesignation] Junior IC       0.314    13
#>  2 Combined [FunctionType] Sales [LevelDesignation] Manager         0.286    28
#>  3 Combined [FunctionType] Marketing [LevelDesignation] Director    0.280    14
#>  4 Combined [FunctionType] Sales [LevelDesignation] Support         0.272    24
#>  5 Combined [FunctionType] Sales [LevelDesignation] Director        0.269     6
#>  6 Combined [FunctionType] Sales [LevelDesignation] Senior IC       0.266    11
#>  7 Combined [FunctionType] Marketing [LevelDesignation] Manager     0.254    72
#>  8 Combined [FunctionType] Marketing [LevelDesignation] Senior IC   0.252    22
#>  9 Combined [FunctionType] Marketing [LevelDesignation] Support     0.232    81
#> 10 Combined [FunctionType] Marketing [LevelDesignation] Junior IC   0.190    17
#> # … with 372 more rows
…
