Text Mining Capabilities for Meeting Subject Lines • wpa
…
The keep argument allows you to specify the maximum number of words to keep in the word cloud. The default value is 100, and in the above example we have changed it to 50. You can find out more from the documentation by prepending the function name with ?, such as ?tm_wordcloud.

Note that you can also return a summary table instead by adding return == "table":

mt_data %>% tm_wordcloud(keep = 50, return = "table") # Using the inbuilt demo dataset
## # A tibble: 50 × 2
##    word        freq
##    <chr>      <int>
##  1 weekly       165
##  2 update       151
##  3 updated      147
##  4 volometrix   137
##  5 interview    106
##  6 meeting      100
##  7 visit         98
##  8 review        92
##  9 messaging     85
## 10 volo          82
## # … with 40 more rows
…
Like tm_wordcloud(), you can also return a summary table as a data frame, instead of a plot:

mt_data %>% tm_cooc(return = "table")
## # A tibble: 539 × 3
##    item1      item2          n
##    <chr>      <chr>      <int>
##  1 board      meeting       24
##  2 annual     report        24
##  3 sql        server        20
##  4 board      directors     19
##  5 updated    interview     15
##  6 weekly     plan          13
##  7 volometrix interview     12
##  8 updated    discussion    12
##  9 weekly     messaging     10
## 10 weekly     meeting        9
## # … with 529 more rows
…
Remember that there is again, an option to return a summary table:

ngrams:

mt_data %>% tm_freq(token = "ngrams", return = "table")
## # A tibble: 158 × 2
##    word                    n
##    <chr>               <int>
##  1 board of directors     19
##  2 and a status            6
##  3 r d and                 6
##  4 the sales and           6
##  5 the status and          6
##  6 a project and           5
##  7 a sales and             5
##  8 and every messaging     5
##  9 and every sales         5
## 10 the board meeting       5
## # … with 148 more rows
…
